%YAML 1.1
%TAG !u! tag:unity3d.com,2011:
--- !u!1045 &1
EditorBuildSettings:
  m_ObjectHideFlags: 0
  serializedVersion: 2
  m_Scenes:
  - enabled: 1
    path: Assets/Scenes/ScenesGame/Menu.unity
    guid: 2cda990e2423bbf4892e6590ba056729
  - enabled: 1
    path: Assets/Scenes/ScenesGame/Rules.unity
    guid: dd9f1db4fded57745a27680e5b00cf30
  - enabled: 1
    path: Assets/Scenes/ScenesGame/Credits.unity
    guid: a56c9f577504bee4b9488e839a07eb07
  - enabled: 1
    path: Assets/Scenes/ScenesGame/LastGridSytemTesting.unity
    guid: 7133e3a37a2786346a14fb04dcd15c0f
  - enabled: 1
    path: Assets/Scenes/ScenesGame/Result.unity
    guid: 0b3b4080a67d26340939adf102ad813b
  m_configObjects: {}
