%YAML 1.1
%TAG !u! tag:unity3d.com,2011:
--- !u!1 &4956348294229859713
GameObject:
  m_ObjectHideFlags: 0
  m_CorrespondingSourceObject: {fileID: 0}
  m_PrefabInstance: {fileID: 0}
  m_PrefabAsset: {fileID: 0}
  serializedVersion: 6
  m_Component:
  - component: {fileID: 4956348294229859726}
  - component: {fileID: 4956348294229859725}
  - component: {fileID: 4956348294229859724}
  - component: {fileID: 4956348294229859727}
  - component: {fileID: 5824600392341647357}
  m_Layer: 5
  m_Name: Big House
  m_TagString: Untagged
  m_Icon: {fileID: 0}
  m_NavMeshLayer: 0
  m_StaticEditorFlags: 0
  m_IsActive: 1
--- !u!224 &4956348294229859726
RectTransform:
  m_ObjectHideFlags: 0
  m_CorrespondingSourceObject: {fileID: 0}
  m_PrefabInstance: {fileID: 0}
  m_PrefabAsset: {fileID: 0}
  m_GameObject: {fileID: 4956348294229859713}
  m_LocalRotation: {x: 0, y: 0, z: 0, w: 1}
  m_LocalPosition: {x: 0, y: 0, z: 0}
  m_LocalScale: {x: 1, y: 1, z: 1}
  m_Children: []
  m_Father: {fileID: 0}
  m_RootOrder: 0
  m_LocalEulerAnglesHint: {x: 0, y: 0, z: 0}
  m_AnchorMin: {x: 0.5, y: 0.5}
  m_AnchorMax: {x: 0.5, y: 0.5}
  m_AnchoredPosition: {x: 0, y: 0}
  m_SizeDelta: {x: 100, y: 100}
  m_Pivot: {x: 0.5, y: 0.5}
--- !u!222 &4956348294229859725
CanvasRenderer:
  m_ObjectHideFlags: 0
  m_CorrespondingSourceObject: {fileID: 0}
  m_PrefabInstance: {fileID: 0}
  m_PrefabAsset: {fileID: 0}
  m_GameObject: {fileID: 4956348294229859713}
  m_CullTransparentMesh: 1
--- !u!114 &4956348294229859724
MonoBehaviour:
  m_ObjectHideFlags: 0
  m_CorrespondingSourceObject: {fileID: 0}
  m_PrefabInstance: {fileID: 0}
  m_PrefabAsset: {fileID: 0}
  m_GameObject: {fileID: 4956348294229859713}
  m_Enabled: 1
  m_EditorHideFlags: 0
  m_Script: {fileID: 11500000, guid: fe87c0e1cc204ed48ad3b37840f39efc, type: 3}
  m_Name: 
  m_EditorClassIdentifier: 
  m_Material: {fileID: 0}
  m_Color: {r: 1, g: 1, b: 1, a: 1}
  m_RaycastTarget: 1
  m_RaycastPadding: {x: 0, y: 0, z: 0, w: 0}
  m_Maskable: 1
  m_OnCullStateChanged:
    m_PersistentCalls:
      m_Calls: []
  m_Sprite: {fileID: 21300000, guid: b6db999f70a01ea4a804015018510aad, type: 3}
  m_Type: 0
  m_PreserveAspect: 0
  m_FillCenter: 1
  m_FillMethod: 4
  m_FillAmount: 1
  m_FillClockwise: 1
  m_FillOrigin: 0
  m_UseSpriteMesh: 0
  m_PixelsPerUnitMultiplier: 1
--- !u!114 &4956348294229859727
MonoBehaviour:
  m_ObjectHideFlags: 0
  m_CorrespondingSourceObject: {fileID: 0}
  m_PrefabInstance: {fileID: 0}
  m_PrefabAsset: {fileID: 0}
  m_GameObject: {fileID: 4956348294229859713}
  m_Enabled: 1
  m_EditorHideFlags: 0
  m_Script: {fileID: 11500000, guid: 81fef0563e898f74f87bcb68d10688aa, type: 3}
  m_Name: 
  m_EditorClassIdentifier: 
  m_Navigation:
    m_Mode: 3
    m_WrapAround: 0
    m_SelectOnUp: {fileID: 0}
    m_SelectOnDown: {fileID: 0}
    m_SelectOnLeft: {fileID: 0}
    m_SelectOnRight: {fileID: 0}
  m_Transition: 0
  m_Colors:
    m_NormalColor: {r: 1, g: 1, b: 1, a: 1}
    m_HighlightedColor: {r: 0.9607843, g: 0.9607843, b: 0.9607843, a: 1}
    m_PressedColor: {r: 0.78431374, g: 0.78431374, b: 0.78431374, a: 1}
    m_SelectedColor: {r: 0.9607843, g: 0.9607843, b: 0.9607843, a: 1}
    m_DisabledColor: {r: 0.78431374, g: 0.78431374, b: 0.78431374, a: 0.5019608}
    m_ColorMultiplier: 1
    m_FadeDuration: 0.1
  m_SpriteState:
    m_HighlightedSprite: {fileID: 0}
    m_PressedSprite: {fileID: 0}
    m_SelectedSprite: {fileID: 0}
    m_DisabledSprite: {fileID: 0}
  m_AnimationTriggers:
    m_NormalTrigger: Normal
    m_HighlightedTrigger: Highlighted
    m_PressedTrigger: Pressed
    m_SelectedTrigger: Selected
    m_DisabledTrigger: Disabled
  m_Interactable: 1
  m_TargetGraphic: {fileID: 4956348294229859724}
  interactableTransitions:
    speed: -1
    roots: []
    aliases: []
    targets: []
    entries:
    - root: {fileID: 0}
      speed: -1
      aliases: []
  nonInteractableTransitions:
    speed: -1
    roots: []
    aliases: []
    targets: []
    entries:
    - root: {fileID: 0}
      speed: -1
      aliases: []
  onInteractable:
    m_PersistentCalls:
      m_Calls: []
  onNonInteractable:
    m_PersistentCalls:
      m_Calls: []
  expectedInteractable: 1
  requiredButtons: 1
  multiDown: 0
  dragThreshold: 10
  normalTransitions:
    speed: -1
    roots: []
    aliases: []
    targets: []
    entries:
    - root: {fileID: 4781537505444806, guid: 50d5767c319bc3546995e8b4067e4083, type: 3}
      speed: -1
      aliases:
      - Key: Scale
        Obj: {fileID: 4956348294229859726}
  downTransitions:
    speed: -1
    roots: []
    aliases: []
    targets: []
    entries:
    - root: {fileID: 0}
      speed: -1
      aliases: []
  clickTransitions:
    speed: -1
    roots: []
    aliases: []
    targets: []
    entries:
    - root: {fileID: 4041465858134576, guid: a0290ec4b404ac646a8a21e449cc1617, type: 3}
      speed: -1
      aliases:
      - Key: Scale
        Obj: {fileID: 4956348294229859726}
  onDown:
    m_PersistentCalls:
      m_Calls: []
  onClick:
    m_PersistentCalls:
      m_Calls:
      - m_Target: {fileID: 0}
        m_TargetAssemblyTypeName: BuildingGhost, Assembly-CSharp
        m_MethodName: InstantiateVisual
        m_Mode: 2
        m_Arguments:
          m_ObjectArgument: {fileID: 11400000, guid: 3bdc8df3f88863540926bb94ad677c13, type: 2}
          m_ObjectArgumentAssemblyTypeName: PlacedObjectTypeSO, Assembly-CSharp
          m_IntArgument: 0
          m_FloatArgument: 0
          m_StringArgument: 
          m_BoolArgument: 0
        m_CallState: 2
--- !u!114 &5824600392341647357
MonoBehaviour:
  m_ObjectHideFlags: 0
  m_CorrespondingSourceObject: {fileID: 0}
  m_PrefabInstance: {fileID: 0}
  m_PrefabAsset: {fileID: 0}
  m_GameObject: {fileID: 4956348294229859713}
  m_Enabled: 1
  m_EditorHideFlags: 0
  m_Script: {fileID: 11500000, guid: e91f86e339b8131498ace0d821a75f1b, type: 3}
  m_Name: 
  m_EditorClassIdentifier: 
  placedObjectTypeSO: {fileID: 11400000, guid: 3bdc8df3f88863540926bb94ad677c13, type: 2}
